simulation/qsim/PBL3.msim.vcd
$comment
	File created using the following command:
		vcd file PBL3.msim.vcd -direction
$end
$date
	Fri Feb 16 20:16:05 2024
$end
$version
	ModelSim Version 2020.1
$end
$timescale
	1ps
$end

$scope module PBL3_vlg_vec_tst $end
$var reg 1 ! CH0 $end
$var reg 1 " CH1 $end
$var reg 1 # CH2 $end
$var reg 1 $ clk $end
$var wire 1 % OUT [6] $end
$var wire 1 & OUT [5] $end
$var wire 1 ' OUT [4] $end
$var wire 1 ( OUT [3] $end
$var wire 1 ) OUT [2] $end
$var wire 1 * OUT [1] $end
$var wire 1 + OUT [0] $end
$var wire 1 , dig0 $end
$var wire 1 - dig1 $end
$var wire 1 . dig2 $end
$var wire 1 / dig3 $end
$var wire 1 0 teste_deze_gar [3] $end
$var wire 1 1 teste_deze_gar [2] $end
$var wire 1 2 teste_deze_gar [1] $end
$var wire 1 3 teste_deze_gar [0] $end
$var wire 1 4 teste_deze_rol [1] $end
$var wire 1 5 teste_deze_rol [0] $end
$var wire 1 6 teste_uni_gar [3] $end
$var wire 1 7 teste_uni_gar [2] $end
$var wire 1 8 teste_uni_gar [1] $end
$var wire 1 9 teste_uni_gar [0] $end
$var wire 1 : teste_uni_rol [3] $end
$var wire 1 ; teste_uni_rol [2] $end
$var wire 1 < teste_uni_rol [1] $end
$var wire 1 = teste_uni_rol [0] $end

$scope module i1 $end
$var wire 1 > gnd $end
$var wire 1 ? vcc $end
$var wire 1 @ unknown $end
$var tri1 1 A devclrn $end
$var tri1 1 B devpor $end
$var tri1 1 C devoe $end
$var wire 1 D clk~combout $end
$var wire 1 E CH2~combout $end
$var wire 1 F CH1~combout $end
$var wire 1 G decod_unidade_gar|sA~0_combout $end
$var wire 1 H And6~combout $end
$var wire 1 I decod_dezena_gar|sA~0_combout $end
$var wire 1 J mux_4_1_7seg|Mux6~0_combout $end
$var wire 1 K CH0~combout $end
$var wire 1 L And5~0_combout $end
$var wire 1 M mux_4_1_7seg|Mux5~5_combout $end
$var wire 1 N And5~combout $end
$var wire 1 O decod_dezena_r|sF~0_combout $end
$var wire 1 P decod_unidade_r|sC~1_combout $end
$var wire 1 Q And1~combout $end
$var wire 1 R And2~combout $end
$var wire 1 S decod_dezena_r|sA~0_combout $end
$var wire 1 T decod_unidade_r|sA~0_combout $end
$var wire 1 U mux_4_1_7seg|Mux6~1_combout $end
$var wire 1 V mux_4_1_7seg|Mux5~0_combout $end
$var wire 1 W mux_4_1_7seg|Mux5~2_combout $end
$var wire 1 X mux_4_1_7seg|Mux5~1_combout $end
$var wire 1 Y mux_4_1_7seg|Mux5~3_combout $end
$var wire 1 Z mux_4_1_7seg|Mux5~4_combout $end
$var wire 1 [ decod_unidade_r|sC~0_combout $end
$var wire 1 \ decod_dezena_r|sA~1 $end
$var wire 1 ] decod_dezena_gar|sC~0_combout $end
$var wire 1 ^ decod_unidade_gar|sC~0_combout $end
$var wire 1 _ mux_4_1_7seg|Mux4~0_combout $end
$var wire 1 ` mux_4_1_7seg|Mux4~1_combout $end
$var wire 1 a decod_unidade_r|sD~0_combout $end
$var wire 1 b decod_unidade_gar|sD~0_combout $end
$var wire 1 c decod_dezena_gar|sD~0_combout $end
$var wire 1 d mux_4_1_7seg|Mux3~0_combout $end
$var wire 1 e mux_4_1_7seg|Mux3~1_combout $end
$var wire 1 f decod_unidade_r|sE~0_combout $end
$var wire 1 g decod_unidade_gar|sE~0_combout $end
$var wire 1 h decod_dezena_gar|sE~0_combout $end
$var wire 1 i mux_4_1_7seg|Mux2~0_combout $end
$var wire 1 j mux_4_1_7seg|Mux2~1_combout $end
$var wire 1 k decod_dezena_gar|sF~0_combout $end
$var wire 1 l mux_4_1_7seg|Mux1~0_combout $end
$var wire 1 m decod_unidade_r|sF~0_combout $end
$var wire 1 n decod_unidade_gar|sF~0_combout $end
$var wire 1 o mux_4_1_7seg|Mux1~1_combout $end
$var wire 1 p decod_unidade_r|sG~0_combout $end
$var wire 1 q decod_dezena_gar|sG~0_combout $end
$var wire 1 r decod_unidade_gar|sG~0_combout $end
$var wire 1 s mux_4_1_7seg|Mux0~0_combout $end
$var wire 1 t mux_4_1_7seg|Mux0~1_combout $end
$var wire 1 u decod_dig_7seg|out0~combout $end
$var wire 1 v decod_dig_7seg|out2~0_combout $end
$var wire 1 w decod_dig_7seg|out2~1_combout $end
$var wire 1 x decod_dig_7seg|out2~2_combout $end
$var wire 1 y cont_dezena_rolha|count [1] $end
$var wire 1 z cont_dezena_rolha|count [0] $end
$var wire 1 { recargas_disponiveis|count [2] $end
$var wire 1 | recargas_disponiveis|count [1] $end
$var wire 1 } recargas_disponiveis|count [0] $end
$var wire 1 ~ cont_dig_7seg|count [1] $end
$var wire 1 !! cont_dig_7seg|count [0] $end
$var wire 1 "! cont_unidade_gar|count [3] $end
$var wire 1 #! cont_unidade_gar|count [2] $end
$var wire 1 $! cont_unidade_gar|count [1] $end
$var wire 1 %! cont_unidade_gar|count [0] $end
$var wire 1 &! cont_dezena_gar|count [3] $end
$var wire 1 '! cont_dezena_gar|count [2] $end
$var wire 1 (! cont_dezena_gar|count [1] $end
$var wire 1 )! cont_dezena_gar|count [0] $end
$var wire 1 *! cont_unidade_rolha|count [3] $end
$var wire 1 +! cont_unidade_rolha|count [2] $end
$var wire 1 ,! cont_unidade_rolha|count [1] $end
$var wire 1 -! cont_unidade_rolha|count [0] $end
$upscope $end
$upscope $end
$enddefinitions $end
#0
$dumpvars
0!
0"
0#
0$
0+
0*
0)
0(
0'
0&
1%
0,
1-
1.
1/
03
02
01
00
05
14
09
08
07
06
1=
0<
1;
0:
0>
1?
x@
1A
1B
1C
0D
0E
0F
1G
1H
1I
0J
0K
1L
1M
0N
0O
0P
0Q
0R
0S
1T
0U
1V
0W
0X
0Y
0Z
0[
1\
0]
0^
0_
0`
1a
0b
0c
0d
0e
1f
0g
0h
0i
0j
0k
0l
0m
0n
0o
0p
1q
1r
1s
1t
0u
0v
0w
0x
0z
0y
0}
0|
0{
0!!
0~
0%!
0$!
0#!
0"!
0)!
0(!
0'!
0&!
0-!
0,!
0+!
0*!
$end
#5000
1!
1#
1$
1K
1E
1D
1Q
1-!
1%!
1!!
0a
0V
0T
0L
1n
1g
1b
0H
0G
1v
1u
19
0=
1e
1o
1i
1J
1,
0-
1j
1U
1(
1&
1'
1+
#10000
1"
0!
0#
0$
1F
0K
0E
0D
0Q
0-!
0%!
1a
1V
1T
1L
0n
0g
0b
1H
1G
09
1=
0e
0o
0i
0J
0j
0U
0(
0&
0'
0+
#15000
1!
1#
1$
1K
1E
1D
1Q
1~
0!!
1w
0v
0t
0s
1l
1`
1o
0%
1)
1-
0.
1&
#20000
0"
0!
0#
0$
0F
0K
0E
0D
0Q
#25000
1!
1#
1$
1K
1E
1D
1Q
1-!
1%!
1!!
0a
0V
0T
0L
1n
1g
1b
0H
0G
1x
0w
1s
0o
1i
1d
1_
1Z
1J
19
0=
0Z
1U
1j
0`
0&
1*
1.
0/
0*
1+
1'
0)
#30000
0!
0#
0$
0K
0E
0D
0Q
#35000
1!
1#
1$
1K
1E
1D
1Q
1,!
1+!
0-!
1$!
0%!
0~
0!!
1m
1T
0M
1L
0r
0g
0b
1^
1G
0x
0u
1t
0l
0i
0d
1`
0_
0J
1o
1e
1<
18
09
1=
0;
0o
0U
0e
0j
0`
0,
1%
1)
1&
1(
1/
0&
0+
0(
0'
0)
#40000
0!
0#
0$
0K
0E
0D
0Q
#45000
1!
1#
1$
1K
1E
1D
1Q
1-!
1%!
1!!
0f
1[
1P
0L
1g
0^
1v
1u
0s
1o
1_
19
0=
1`
1i
0_
0t
1,
1&
0-
1j
0`
1)
0%
1'
0)
#50000
0!
0#
0$
0K
0E
0D
0Q
#55000
1!
1#
1$
1K
1E
1D
1Q
0,!
0-!
1#!
0$!
0%!
1~
0!!
1p
1f
1a
0[
0T
0P
1L
0n
0G
1w
0v
1l
0j
0i
1`
0o
0<
17
08
09
1=
1o
0'
1)
0&
1-
0.
1&
#60000
0!
0#
0$
0K
0E
0D
0Q
#65000
1!
1#
1$
1K
1E
1D
1Q
1-!
1%!
1!!
0m
0f
0a
1T
1P
0L
1b
1X
1G
1x
0w
1s
1i
1d
1_
1J
19
0=
0o
1Y
1t
0`
1.
0/
0&
1%
0)
#70000
0!
0#
0$
0K
0E
0D
0Q
#75000
1!
1#
1$
1K
1E
1D
1Q
1*!
0-!
1$!
0%!
0~
0!!
0p
1f
1a
1R
0P
1L
0g
0b
0x
0u
0l
1j
0i
0d
1`
0_
1Z
1U
0J
1o
1e
0Y
1:
18
09
1=
0j
0e
0o
0`
0U
0Z
0,
1'
1)
1*
1+
1&
1(
1/
0'
0(
0&
0)
0+
0*
1z
1y
1S
0\
15
04
#80000
0!
0#
0$
0K
0E
0D
0Q
#85000
1!
1#
1$
1K
1E
1D
1Q
1-!
1%!
1!!
0f
0a
0R
0L
1r
1n
1g
1b
0X
1v
1u
0s
1Y
19
0=
1e
1s
1o
1i
0Y
0t
1Z
1,
0-
1t
1j
0Z
1(
1&
0%
1*
1%
1'
0*
#90000
0!
0#
0$
0K
0E
0D
0Q
#95000
1!
1#
1$
1K
1E
1D
1Q
0*!
1,!
0+!
0-!
0#!
0$!
1"!
0%!
1~
0!!
1p
1m
1f
1a
1M
1L
0r
0n
0g
0b
1w
0v
0t
0s
1l
0j
0i
1d
1U
0o
0e
0:
1<
07
08
16
09
1=
1;
1t
1o
1j
1e
0%
0'
1+
0&
0(
1-
0.
1%
1&
1'
1(
#100000
0!
0#
0$
0K
0E
0D
0Q
#105000
1!
1#
1$
1K
1E
1D
1Q
1-!
1%!
1!!
0p
0m
0f
0a
1V
0L
1g
1b
1x
0w
1s
1i
1_
1J
19
0=
0t
0o
0j
0e
1Z
0U
1.
0/
0%
0&
0'
0(
1*
0+
#110000
0!
0#
0$
0K
0E
0D
0Q
#115000
1!
1#
1$
1K
1E
1D
1Q
0,!
0-!
0"!
0%!
0~
0!!
1f
1a
1L
1r
0g
0b
1H
0x
0u
1t
0l
1j
0i
0d
1`
0_
0Z
1U
0J
1o
1e
0<
06
09
1=
0j
0e
0o
0`
0U
0,
1%
1'
1)
0*
1+
1&
1(
1/
0'
0(
0&
0)
0+
1)!
1k
1h
1c
0I
13
1l
1i
1d
1J
1o
1j
1e
1U
1&
1'
1(
1+
#120000
0!
0#
0$
0K
0E
0D
0Q
#125000
1!
1#
1$
1K
1E
1D
1Q
1-!
1%!
1!!
0a
0V
0T
0L
1n
1g
1b
0H
0G
1v
1u
0o
0l
0i
0d
0J
19
0=
0U
1o
1i
1J
0j
1,
0&
0-
1j
1U
0+
1&
0'
1'
1+
#130000
0!
0#
0$
0K
0E
0D
0Q
#135000
1!
1#
1$
1K
1E
1D
1Q
1,!
1+!
0-!
1$!
0%!
1~
0!!
1m
1T
0M
1L
0r
0g
0b
1^
1G
1w
0v
0t
0s
1l
0i
1d
0J
0o
0e
1<
18
09
1=
0;
1o
1e
1t
0%
0&
0(
1-
0.
1&
1(
1%
#140000
0!
0#
0$
0K
0E
0D
0Q
#145000
1!
1#
1$
1K
1E
1D
1Q
1-!
1%!
1!!
0f
1[
1P
0L
1g
0^
1x
0w
1s
1i
0e
1_
1J
19
0=
0j
1`
0t
0U
0(
1.
0/
0'
1)
0%
0+
#150000
0!
0#
0$
0K
0E
0D
0Q
#155000
1!
1#
1$
1K
1E
1D
1Q
0,!
0-!
1#!
0$!
0%!
0~
0!!
1p
1f
1a
0[
0T
0P
1L
0n
0G
0x
0u
1t
1j
0_
1U
1e
0<
17
08
09
1=
0`
0,
1%
1'
1+
1(
1/
0)
#160000
0!
0#
0$
0K
0E
0D
0Q
#165000
1!
1#
1$
1K
1E
1D
1Q
1-!
1%!
1!!
0m
0f
0a
1T
1P
0L
1b
1X
1G
1v
1u
0s
0l
0d
19
0=
0o
1Y
0J
0t
1,
0-
1Z
0U
0&
0%
1*
0+
#170000
0!
0#
0$
0K
0E
0D
0Q
#175000
1!
1#
1$
1K
1E
1D
1Q
1*!
0-!
1$!
0%!
1~
0!!
0p
1f
1a
1R
0P
1L
0g
0b
1w
0v
1t
1l
0j
0i
1d
0Z
1U
0e
0Y
1:
18
09
1=
1j
1e
1o
1%
0'
0*
1+
0(
1-
0.
1'
1(
1&
0z
0j
0S
1O
05
0d
0U
0l
0'
0e
0o
0+
0(
0&
#180000
0!
0#
0$
0K
0E
0D
0Q
#185000
1!
1#
1$
1K
1E
1D
1Q
1-!
1%!
1!!
0f
0a
0R
0L
1r
1n
1g
1b
0X
1x
0w
1s
1l
1i
1d
1_
1Y
1J
19
0=
0Y
0t
1.
0/
0%
#190000
0!
0#
0$
0K
0E
0D
0Q
#195000
1!
1#
1$
1K
1E
1D
1Q
0*!
1,!
0+!
0-!
0#!
0$!
1"!
0%!
0~
0!!
1p
1m
1f
1a
1M
1L
0r
0n
0g
0b
0x
0u
1t
1j
1`
0_
1U
1o
1e
0:
1<
07
08
16
09
1=
1;
0`
0,
1%
1'
1)
1+
1&
1(
1/
0)
#200000
0!
0#
0$
0K
0E
0D
0Q
#205000
1!
1#
1$
1K
1E
1D
1Q
1-!
1%!
1!!
0p
0m
0f
0a
1V
0L
1g
1b
1v
1u
0s
0l
0i
0d
0J
19
0=
0t
0o
0j
1i
0U
1,
0-
1j
0%
0&
0'
0+
1'
#210000
0!
0#
0$
0K
0E
0D
0Q
#215000
1!
1#
1$
1K
1E
1D
1Q
0,!
0-!
0"!
0%!
1~
0!!
1f
1a
1L
1r
0g
0b
1H
1w
0v
1t
0j
0i
0e
0<
06
09
1=
1N
1%
0'
0(
1-
0.
0y
1}
1(!
0)!
0t
1\
0O
0q
0h
0c
1]
1I
12
03
14
1`
1l
0N
0%
1o
1)
1&
#220000
0!
0#
0$
0K
0E
0D
0Q
#225000
1!
1#
1$
1K
1E
1D
1Q
1-!
1%!
1!!
0a
0V
0T
0L
1n
1g
1b
0H
0G
1x
0w
1s
0o
1i
1d
1_
1Z
1J
19
0=
0Z
1U
1j
0`
0&
1*
1.
0/
0*
1+
1'
0)
#230000
0!
0#
0$
0K
0E
0D
0Q
#235000
1!
1#
1$
1K
1E
1D
1Q
1,!
1+!
0-!
1$!
0%!
0~
0!!
1m
1T
0M
1L
0r
0g
0b
1^
1G
0x
0u
1t
0s
0i
0d
1`
0J
1o
1e
1<
18
09
1=
0;
0U
0e
0t
0j
0,
1%
1)
1&
1(
1/
0+
0(
0%
0'
#240000
0!
0#
0$
0K
0E
0D
0Q
#245000
1!
1#
1$
1K
1E
1D
1Q
1-!
1%!
1!!
0f
1[
1P
0L
1g
0^
1v
1u
0l
19
0=
1i
0_
1,
0-
1j
0`
1'
0)
#250000
0!
0#
0$
0K
0E
0D
0Q
#255000
1!
1#
1$
1K
1E
1D
1Q
0,!
0-!
1#!
0$!
0%!
1~
0!!
1p
1f
1a
0[
0T
0P
1L
0n
0G
1w
0v
1l
0j
0i
1`
0o
0<
17
08
09
1=
1o
0'
1)
0&
1-
0.
1&
#260000
0!
0#
0$
0K
0E
0D
0Q
#265000
1!
1#
1$
1K
1E
1D
1Q
1-!
1%!
1!!
0m
0f
0a
1T
1P
0L
1b
1X
1G
1x
0w
1s
1i
1d
1_
1J
19
0=
0o
1Y
1t
0`
1.
0/
0&
1%
0)
#270000
0!
0#
0$
0K
0E
0D
0Q
#275000
1!
1#
1$
1K
1E
1D
1Q
1*!
0-!
1$!
0%!
0~
0!!
0p
1f
1a
1R
0P
1L
0g
0b
0x
0u
0s
1j
0i
0d
1`
1Z
1U
0J
1o
1e
0Y
1:
18
09
1=
0t
0j
0e
0U
0Z
0,
1'
1)
1*
1+
1&
1(
1/
0%
0'
0(
0+
0*
1z
1y
1S
0\
15
04
#280000
0!
0#
0$
0K
0E
0D
0Q
#285000
1!
1#
1$
1K
1E
1D
1Q
1-!
1%!
1!!
0f
0a
0R
0L
1r
1n
1g
1b
0X
1v
1u
0o
0l
0_
1Y
19
0=
1e
1s
1o
1i
0Y
0`
1Z
1,
0&
0-
1t
1j
0Z
1(
1&
0)
1*
1%
1'
0*
#290000
0!
0#
0$
0K
0E
0D
0Q
#295000
1!
1#
1$
1K
1E
1D
1Q
0*!
1,!
0+!
0-!
0#!
0$!
1"!
0%!
1~
0!!
1p
1m
1f
1a
1M
1L
0r
0n
0g
0b
1w
0v
0t
0s
1l
0j
0i
1d
1U
0o
0e
0:
1<
07
08
16
09
1=
1;
1t
1o
1j
1e
0%
0'
1+
0&
0(
1-
0.
1%
1&
1'
1(
#300000
0!
0#
0$
0K
0E
0D
0Q
#305000
1!
1#
1$
1K
1E
1D
1Q
1-!
1%!
1!!
0p
0m
0f
0a
1V
0L
1g
1b
1x
0w
1s
1i
1_
1J
19
0=
0t
0o
0j
0e
1Z
0U
1.
0/
0%
0&
0'
0(
1*
0+
#310000
0!
0#
0$
0K
0E
0D
0Q
#315000
1!
1#
1$
1K
1E
1D
1Q
0,!
0-!
0"!
0%!
0~
0!!
1f
1a
1L
1r
0g
0b
1H
0x
0u
1t
0s
1j
0i
0d
1`
0Z
1U
0J
1o
1e
0<
06
09
1=
0j
0e
0t
0U
0,
1%
1'
1)
0*
1+
1&
1(
1/
0'
0(
0%
0+
1)!
1h
0]
13
1i
0_
1j
0`
1'
0)
#320000
0!
0#
0$
0K
0E
0D
0Q
#325000
1!
1#
1$
1K
1E
1D
1Q
1-!
1%!
1!!
0a
0V
0T
0L
1n
1g
1b
0H
0G
1v
1u
1s
0o
0l
0i
19
0=
1e
1o
1i
1J
1t
0j
1,
0&
0-
1j
1U
1(
1&
1%
0'
1'
1+
#330000
0!
0#
0$
0K
0E
0D
0Q
#335000
1!
1#
1$
1K
1E
1D
1Q
1,!
1+!
0-!
1$!
0%!
1~
0!!
1m
1T
0M
1L
0r
0g
0b
1^
1G
1w
0v
0t
0s
1l
0i
1d
0J
0o
0e
1<
18
09
1=
0;
1o
1e
1t
0%
0&
0(
1-
0.
1&
1(
1%
#340000
0!
0#
0$
0K
0E
0D
0Q
#345000
1!
1#
1$
1K
1E
1D
1Q
1-!
1%!
1!!
0f
1[
1P
0L
1g
0^
1x
0w
1s
1i
0e
1_
1J
19
0=
0j
1`
0t
0U
0(
1.
0/
0'
1)
0%
0+
#350000
0!
0#
0$
0K
0E
0D
0Q
#355000
1!
1#
1$
1K
1E
1D
1Q
0,!
0-!
1#!
0$!
0%!
0~
0!!
1p
1f
1a
0[
0T
0P
1L
0n
0G
0x
0u
1t
0s
1j
0d
0_
1U
0J
1e
0<
17
08
09
1=
0t
0e
0`
0U
0,
1%
1'
1+
1(
1/
0%
0(
0)
0+
#360000
0!
0#
0$
0K
0E
0D
0Q
#365000
1!
1#
1$
1K
1E
1D
1Q
1-!
1%!
1!!
0m
0f
0a
1T
1P
0L
1b
1X
1G
1v
1u
0l
1J
19
0=
0o
1e
1U
1Y
0J
1,
0-
1Z
0U
0&
1(
1+
1*
0+
#370000
0!
0#
0$
0K
0E
0D
0Q
#375000
1!
1#
1$
1K
1E
1D
1Q
1*!
0-!
1$!
0%!
1~
0!!
0p
1f
1a
1R
0P
1L
0g
0b
1w
0v
1t
1l
0j
0i
1d
0Z
1U
0e
0Y
1:
18
09
1=
1j
1e
1o
1%
0'
0*
1+
0(
1-
0.
1'
1(
1&
0z
0j
0S
1O
05
0d
0U
0l
0'
0e
0o
0+
0(
0&
#380000
0!
0#
0$
0K
0E
0D
0Q
#385000
1!
1#
1$
1K
1E
1D
1Q
1-!
1%!
1!!
0f
0a
0R
0L
1r
1n
1g
1b
0X
1x
0w
1s
1l
1i
1d
1_
1Y
1J
19
0=
0Y
0t
1.
0/
0%
#390000
0!
0#
0$
0K
0E
0D
0Q
#395000
1!
1#
1$
1K
1E
1D
1Q
0*!
1,!
0+!
0-!
0#!
0$!
1"!
0%!
0~
0!!
1p
1m
1f
1a
1M
1L
0r
0n
0g
0b
0x
0u
1t
0s
1j
0d
1`
0_
1U
0J
1o
1e
0:
1<
07
08
16
09
1=
1;
0t
0e
0`
0U
0,
1%
1'
1)
1+
1&
1(
1/
0%
0(
0)
0+
#400000
0!
0#
0$
0K
0E
0D
0Q
#405000
1!
1#
1$
1K
1E
1D
1Q
1-!
1%!
1!!
0p
0m
0f
0a
1V
0L
1g
1b
1v
1u
0l
0i
19
0=
0o
0j
1e
1i
1,
0-
1j
0&
0'
1(
1'
#410000
0!
0#
0$
0K
0E
0D
0Q
#415000
1!
1#
1$
1K
1E
1D
1Q
0,!
0-!
0"!
0%!
1~
0!!
1f
1a
1L
1r
0g
0b
1H
1w
0v
1t
0j
0i
0e
0<
06
09
1=
1N
1%
0'
0(
1-
0.
0y
1|
0}
0(!
1'!
0)!
0t
1\
0O
0k
0I
02
11
03
14
1`
1l
0N
0%
1o
1)
1&
#420000
0!
0#
0$
0K
0E
0D
0Q
#425000
1!
1#
1$
1K
1E
1D
1Q
1-!
1%!
1!!
0a
0V
0T
0L
1n
1g
1b
0H
0G
1x
0w
1s
0o
1i
1d
1_
1Z
1J
19
0=
0Z
1U
1j
0`
0&
1*
1.
0/
0*
1+
1'
0)
#430000
0!
0#
0$
0K
0E
0D
0Q
#435000
1!
1#
1$
1K
1E
1D
1Q
1,!
1+!
0-!
1$!
0%!
0~
0!!
1m
1T
0M
1L
0r
0g
0b
1^
1G
0x
0u
1t
0s
0l
0d
1`
0_
1o
1e
1<
18
09
1=
0;
0o
0e
0t
0`
0,
1%
1)
1&
1(
1/
0&
0(
0%
0)
#440000
0!
0#
0$
0K
0E
0D
0Q
#445000
1!
1#
1$
1K
1E
1D
1Q
1-!
1%!
1!!
0f
1[
1P
0L
1g
0^
1v
1u
1o
0i
1_
0J
19
0=
0j
1`
1i
0_
0U
1,
1&
0-
1j
0`
0'
1)
0+
1'
0)
#450000
0!
0#
0$
0K
0E
0D
0Q
#455000
1!
1#
1$
1K
1E
1D
1Q
0,!
0-!
1#!
0$!
0%!
1~
0!!
1p
1f
1a
0[
0T
0P
1L
0n
0G
1w
0v
1l
0j
0i
1`
0o
0<
17
08
09
1=
1o
0'
1)
0&
1-
0.
1&
#460000
0!
0#
0$
0K
0E
0D
0Q
#465000
1!
1#
1$
1K
1E
1D
1Q
1-!
1%!
1!!
0m
0f
0a
1T
1P
0L
1b
1X
1G
1x
0w
1s
1i
1d
1_
1J
19
0=
0o
1Y
1t
0`
1.
0/
0&
1%
0)
#470000
0!
0#
0$
0K
0E
0D
0Q
#475000
1!
1#
1$
1K
1E
1D
1Q
1*!
0-!
1$!
0%!
0~
0!!
0p
1f
1a
1R
0P
1L
0g
0b
0x
0u
0s
0l
1j
0d
1`
0_
1Z
1U
1o
1e
0Y
1:
18
09
1=
0t
0e
0o
0`
0Z
0,
1'
1)
1*
1+
1&
1(
1/
0%
0(
0&
0)
0*
1z
1y
1S
0\
15
04
#480000
0!
0#
0$
0K
0E
0D
0Q
#485000
1!
1#
1$
1K
1E
1D
1Q
1-!
1%!
1!!
0f
0a
0R
0L
1r
1n
1g
1b
0X
1v
1u
0i
1Y
0J
19
0=
0j
1e
1s
1o
1i
0Y
1Z
0U
1,
0-
1t
1j
0Z
0'
1(
1&
1*
0+
1%
1'
0*
#490000
0!
0#
0$
0K
0E
0D
0Q
#495000
1!
1#
1$
1K
1E
1D
1Q
0*!
1,!
0+!
0-!
0#!
0$!
1"!
0%!
1~
0!!
1p
1m
1f
1a
1M
1L
0r
0n
0g
0b
1w
0v
0t
0s
1l
0j
0i
1d
1U
0o
0e
0:
1<
07
08
16
09
1=
1;
1t
1o
1j
1e
0%
0'
1+
0&
0(
1-
0.
1%
1&
1'
1(
#500000
0!
0#
0$
0K
0E
0D
0Q
#505000
1!
1#
1$
1K
1E
1D
1Q
1-!
1%!
1!!
0p
0m
0f
0a
1V
0L
1g
1b
1x
0w
1s
1i
1_
1J
19
0=
0t
0o
0j
0e
1Z
0U
1.
0/
0%
0&
0'
0(
1*
0+
#510000
0!
0#
0$
0K
0E
0D
0Q
#515000
1!
1#
1$
1K
1E
1D
1Q
0,!
0-!
0"!
0%!
0~
0!!
1f
1a
1L
1r
0g
0b
1H
0x
0u
1t
0s
0l
1j
0d
1`
0_
0Z
1U
1o
1e
0<
06
09
1=
0e
0t
0o
0`
0,
1%
1'
1)
0*
1+
1&
1(
1/
0(
0%
0&
0)
1)!
1c
1W
1I
13
1d
1Y
0J
1e
1Z
0U
1(
1*
0+
#520000
0!
0#
0$
0K
0E
0D
0Q
#525000
1!
1#
1$
1K
1E
1D
1Q
1-!
1%!
1!!
0a
0V
0T
0L
1n
1g
1b
0H
0G
1v
1u
1s
0i
0d
0Y
19
0=
0Z
1o
1i
1J
1t
0j
1,
0-
1j
1U
0*
1&
1%
0'
1'
1+
#530000
0!
0#
0$
0K
0E
0D
0Q
#535000
1!
1#
1$
1K
1E
1D
1Q
1,!
1+!
0-!
1$!
0%!
1~
0!!
1m
1T
0M
1L
0r
0g
0b
1^
1G
1w
0v
0t
0s
1l
0i
1d
0J
0o
0e
1Y
1<
18
09
1=
0;
1o
1e
1t
0%
0&
0(
1-
0.
1&
1(
1%
#540000
0!
0#
0$
0K
0E
0D
0Q
#545000
1!
1#
1$
1K
1E
1D
1Q
1-!
1%!
1!!
0f
1[
1P
0L
1g
0^
1x
0w
1s
1i
0e
1_
0Y
1J
19
0=
0j
1`
0t
0U
0(
1.
0/
0'
1)
0%
0+
#550000
0!
0#
0$
0K
0E
0D
0Q
#555000
1!
1#
1$
1K
1E
1D
1Q
0,!
0-!
1#!
0$!
0%!
0~
0!!
1p
1f
1a
0[
0T
0P
1L
0n
0G
0x
0u
1t
0s
0l
1j
0_
1U
0J
1e
1Y
0<
17
08
09
1=
0t
0`
0U
0o
1Z
0,
1%
1'
1+
1(
1/
0%
0)
0+
0&
1*
#560000
0!
0#
0$
0K
0E
0D
0Q
#565000
1!
1#
1$
1K
1E
1D
1Q
1-!
1%!
1!!
0m
0f
0a
1T
1P
0L
1b
1X
1G
1v
1u
0d
0Y
1J
19
0=
1U
1Y
0J
0Z
1,
0-
1Z
0U
1+
0*
1*
0+
#570000
0!
0#
0$
0K
0E
0D
0Q
#575000
1!
1#
1$
1K
1E
1D
1Q
1*!
0-!
1$!
0%!
1~
0!!
0p
1f
1a
1R
0P
1L
0g
0b
1w
0v
1t
1l
0j
0i
1d
0Z
1U
0e
1:
18
09
1=
1j
1e
1o
1%
0'
0*
1+
0(
1-
0.
1'
1(
1&
0z
0j
0S
1O
05
0d
0U
0l
0'
0e
0o
0+
0(
0&
#580000
0!
0#
0$
0K
0E
0D
0Q
#585000
1!
1#
1$
1K
1E
1D
1Q
1-!
1%!
1!!
0f
0a
0R
0L
1r
1n
1g
1b
0X
1x
0w
1s
1l
1i
1d
1_
1J
19
0=
0Y
0t
1.
0/
0%
#590000
0!
0#
0$
0K
0E
0D
0Q
#595000
1!
1#
1$
1K
1E
1D
1Q
0*!
1,!
0+!
0-!
0#!
0$!
1"!
0%!
0~
0!!
1p
1m
1f
1a
1M
1L
0r
0n
0g
0b
0x
0u
1t
0s
0l
1j
1`
0_
1U
0J
1o
1e
1Y
0:
1<
07
08
16
09
1=
1;
0t
0o
0`
0U
1Z
0,
1%
1'
1)
1+
1&
1(
1/
0%
0&
0)
0+
1*
#600000
0!
0#
0$
0K
0E
0D
0Q
#605000
1!
1#
1$
1K
1E
1D
1Q
1-!
1%!
1!!
0p
0m
0f
0a
1V
0L
1g
1b
1v
1u
0i
0d
0Y
19
0=
0j
0Z
1i
1,
0-
1j
0'
0*
1'
#610000
0!
0#
0$
0K
0E
0D
0Q
#615000
1!
1#
1$
1K
1E
1D
1Q
0,!
0-!
0"!
0%!
1~
0!!
1f
1a
1L
1r
0g
0b
1H
1w
0v
1t
0j
0i
0e
1Y
0<
06
09
1=
1N
1%
0'
0(
1-
0.
0y
1}
1(!
0)!
0t
1\
0O
0h
0c
12
03
14
1`
1l
0N
0%
1o
1)
1&
#620000
0!
0#
0$
0K
0E
0D
0Q
#625000
1!
1#
1$
1K
1E
1D
1Q
1-!
1%!
1!!
0a
0V
0T
0L
1n
1g
1b
0H
0G
1x
0w
1s
0o
1i
1d
1_
1Z
0Y
1J
19
0=
0Z
1U
1j
0`
0&
1*
1.
0/
0*
1+
1'
0)
#630000
0!
0#
0$
0K
0E
0D
0Q
#635000
1!
1#
1$
1K
1E
1D
1Q
1,!
1+!
0-!
1$!
0%!
0~
0!!
1m
1T
0M
1L
0r
0g
0b
1^
1G
0x
0u
1t
0s
0l
0i
0d
1`
0_
0J
1o
1e
1Y
1<
18
09
1=
0;
0o
0U
0e
0t
0j
0`
1Z
0,
1%
1)
1&
1(
1/
0&
0+
0(
0%
0'
0)
1*
#640000
0!
0#
0$
0K
0E
0D
0Q
#645000
1!
1#
1$
1K
1E
1D
1Q
1-!
1%!
1!!
0f
1[
1P
0L
1g
0^
1v
1u
1o
1_
0Y
19
0=
1`
1i
0_
0Z
1,
1&
0-
1j
0`
1)
0*
1'
0)
#650000
0!
0#
0$
0K
0E
0D
0Q
#655000
1!
1#
1$
1K
1E
1D
1Q
0,!
0-!
1#!
0$!
0%!
1~
0!!
1p
1f
1a
0[
0T
0P
1L
0n
0G
1w
0v
1l
0j
0i
1`
0o
1Y
0<
17
08
09
1=
1o
0'
1)
0&
1-
0.
1&
#660000
0!
0#
0$
0K
0E
0D
0Q
#665000
1!
1#
1$
1K
1E
1D
1Q
1-!
1%!
1!!
0m
0f
0a
1T
1P
0L
1b
1X
1G
1x
0w
1s
1i
1d
1_
0Y
1J
19
0=
0o
1Y
1t
0`
1.
0/
0&
1%
0)
#670000
0!
0#
0$
0K
0E
0D
0Q
