simulation/qsim/PBL3.msim.vcd
$comment
	File created using the following command:
		vcd file PBL3.msim.vcd -direction
$end
$date
	Thu Feb 15 22:36:12 2024
$end
$version
	ModelSim Version 2020.1
$end
$timescale
	1ps
$end

$scope module PBL3_vlg_vec_tst $end
$var reg 1 ! CH0 $end
$var reg 1 " CH1 $end
$var reg 1 # clk $end
$var wire 1 $ OUT [6] $end
$var wire 1 % OUT [5] $end
$var wire 1 & OUT [4] $end
$var wire 1 ' OUT [3] $end
$var wire 1 ( OUT [2] $end
$var wire 1 ) OUT [1] $end
$var wire 1 * OUT [0] $end
$var wire 1 + dig0 $end
$var wire 1 , dig1 $end
$var wire 1 - dig2 $end
$var wire 1 . dig3 $end
$var wire 1 / teste0 [3] $end
$var wire 1 0 teste0 [2] $end
$var wire 1 1 teste0 [1] $end
$var wire 1 2 teste0 [0] $end
$var wire 1 3 teste1 [1] $end
$var wire 1 4 teste1 [0] $end
$var wire 1 5 teste2 [2] $end
$var wire 1 6 teste2 [1] $end
$var wire 1 7 teste2 [0] $end

$scope module i1 $end
$var wire 1 8 gnd $end
$var wire 1 9 vcc $end
$var wire 1 : unknown $end
$var tri1 1 ; devclrn $end
$var tri1 1 < devpor $end
$var tri1 1 = devoe $end
$var wire 1 > CH0~combout $end
$var wire 1 ? CH1~combout $end
$var wire 1 @ And2~combout $end
$var wire 1 A And5~6_combout $end
$var wire 1 B And5~3_combout $end
$var wire 1 C And5~combout $end
$var wire 1 D cont_unidade_rolha|Equal0~0_combout $end
$var wire 1 E And1~combout $end
$var wire 1 F cont_unidade_rolha|count [3] $end
$var wire 1 G cont_unidade_rolha|count [2] $end
$var wire 1 H cont_unidade_rolha|count [1] $end
$var wire 1 I cont_unidade_rolha|count [0] $end
$var wire 1 J cont_dezena_rolha|count [1] $end
$var wire 1 K cont_dezena_rolha|count [0] $end
$var wire 1 L recargas_disponiveis|count [2] $end
$var wire 1 M recargas_disponiveis|count [1] $end
$var wire 1 N recargas_disponiveis|count [0] $end
$upscope $end
$upscope $end
$enddefinitions $end
#0
$dumpvars
0!
0"
x#
0*
0)
0(
0'
0&
0%
0$
0+
0,
0-
0.
12
01
10
0/
04
13
07
06
05
08
19
x:
1;
1<
1=
0>
0?
0@
1A
1B
0C
0D
0E
0I
0H
0G
0F
0K
0J
0N
0M
0L
$end
#5000
1!
1>
1E
1I
0B
02
#10000
1"
0!
1?
0>
0E
0I
1B
12
#15000
1!
1>
1E
#20000
0"
0!
0?
0>
0E
#25000
1!
1>
1E
1I
0B
02
#30000
0!
0>
0E
#35000
1!
1>
1E
0I
1G
1H
11
00
12
#40000
0!
0>
0E
#45000
1!
1>
1E
1I
02
#50000
0!
0>
0E
#55000
1!
1>
1E
0I
0H
01
12
#60000
0!
0>
0E
#65000
1!
1>
1E
1I
1D
02
#70000
0!
0>
0E
#75000
1!
1>
1E
0I
1F
0D
1@
1/
12
1J
1K
14
03
#80000
0!
0>
0E
#85000
1!
1>
1E
1I
0@
02
#90000
0!
0>
0E
#95000
1!
1>
1E
0I
0F
0G
1H
0/
11
10
12
#100000
0!
0>
0E
#105000
1!
1>
1E
1I
02
#110000
0!
0>
0E
#115000
1!
1>
1E
0I
0H
1B
01
12
#120000
0!
0>
0E
#125000
1!
1>
1E
1I
0B
02
#130000
0!
0>
0E
#135000
1!
1>
1E
0I
1G
1H
11
00
12
#140000
0!
0>
0E
#145000
1!
1>
1E
1I
02
#150000
0!
0>
0E
#155000
1!
1>
1E
0I
0H
01
12
#160000
0!
0>
0E
#165000
1!
1>
1E
1I
1D
02
#170000
0!
0>
0E
#175000
1!
1>
1E
0I
1F
0D
1@
1/
12
0K
04
#180000
0!
0>
0E
#185000
1!
1>
1E
1I
0@
02
#190000
0!
0>
0E
#195000
1!
1>
1E
0I
0F
0G
1H
0/
11
10
12
#200000
0!
0>
0E
#205000
1!
1>
1E
1I
02
#210000
0!
0>
0E
#215000
1!
1>
1E
0I
0H
1B
01
12
1C
0J
1N
0C
17
13
#220000
0!
0>
0E
#225000
1!
1>
1E
1I
0B
02
#230000
0!
0>
0E
#235000
1!
1>
1E
0I
1G
1H
11
00
12
#240000
0!
0>
0E
#245000
1!
1>
1E
1I
02
#250000
0!
0>
0E
#255000
1!
1>
1E
0I
0H
01
12
#260000
0!
0>
0E
#265000
1!
1>
1E
1I
1D
02
#270000
0!
0>
0E
#275000
1!
1>
1E
0I
1F
0D
1@
1/
12
1J
1K
14
03
#280000
0!
0>
0E
#285000
1!
1>
1E
1I
0@
02
#290000
0!
0>
0E
#295000
1!
1>
1E
0I
0F
0G
1H
0/
11
10
12
#300000
0!
0>
0E
#305000
1!
1>
1E
1I
02
#310000
0!
0>
0E
#315000
1!
1>
1E
0I
0H
1B
01
12
#320000
0!
0>
0E
#325000
1!
1>
1E
1I
0B
02
#330000
0!
0>
0E
#335000
1!
1>
1E
0I
1G
1H
11
00
12
#340000
0!
0>
0E
#345000
1!
1>
1E
1I
02
#350000
0!
0>
0E
#355000
1!
1>
1E
0I
0H
01
12
#360000
0!
0>
0E
#365000
1!
1>
1E
1I
1D
02
#370000
0!
0>
0E
#375000
1!
1>
1E
0I
1F
0D
1@
1/
12
0K
04
#380000
0!
0>
0E
#385000
1!
1>
1E
1I
0@
02
#390000
0!
0>
0E
#395000
1!
1>
1E
0I
0F
0G
1H
0/
11
10
12
#400000
0!
0>
0E
#405000
1!
1>
1E
1I
02
#410000
0!
0>
0E
#415000
1!
1>
1E
0I
0H
1B
01
12
1C
0J
1M
0N
0C
16
07
13
#420000
0!
0>
0E
#425000
1!
1>
1E
1I
0B
02
#430000
0!
0>
0E
#435000
1!
1>
1E
0I
1G
1H
11
00
12
#440000
0!
0>
0E
#445000
1!
1>
1E
1I
02
#450000
0!
0>
0E
#455000
1!
1>
1E
0I
0H
01
12
#460000
0!
0>
0E
#465000
1!
1>
1E
1I
1D
02
#470000
0!
0>
0E
#475000
1!
1>
1E
0I
1F
0D
1@
1/
12
1J
1K
14
03
#480000
0!
0>
0E
#485000
1!
1>
1E
1I
0@
02
#490000
0!
0>
0E
#495000
1!
1>
1E
0I
0F
0G
1H
0/
11
10
12
#500000
0!
0>
0E
#505000
1!
1>
1E
1I
02
#510000
0!
0>
0E
#515000
1!
1>
1E
0I
0H
1B
01
12
#520000
0!
0>
0E
#525000
1!
1>
1E
1I
0B
02
#530000
0!
0>
0E
#535000
1!
1>
1E
0I
1G
1H
11
00
12
#540000
0!
0>
0E
#545000
1!
1>
1E
1I
02
#550000
0!
0>
0E
#555000
1!
1>
1E
0I
0H
01
12
#560000
0!
0>
0E
#565000
1!
1>
1E
1I
1D
02
#570000
0!
0>
0E
#575000
1!
1>
1E
0I
1F
0D
1@
1/
12
0K
04
#580000
0!
0>
0E
#585000
1!
1>
1E
1I
0@
02
#590000
0!
0>
0E
#595000
1!
1>
1E
0I
0F
0G
1H
0/
11
10
12
#600000
0!
0>
0E
#605000
1!
1>
1E
1I
02
#610000
0!
0>
0E
#615000
1!
1>
1E
0I
0H
1B
01
12
1C
0J
1N
0C
17
13
#620000
0!
0>
0E
#625000
1!
1>
1E
1I
0B
02
#630000
0!
0>
0E
#635000
1!
1>
1E
0I
1G
1H
11
00
12
#640000
0!
0>
0E
#645000
1!
1>
1E
1I
02
#650000
0!
0>
0E
#655000
1!
1>
1E
0I
0H
01
12
#660000
0!
0>
0E
#665000
1!
1>
1E
1I
1D
02
#670000
0!
0>
0E
#675000
1!
1>
1E
0I
1F
0D
1@
1/
12
1J
1K
14
03
#680000
0!
0>
0E
#685000
1!
1>
1E
1I
0@
02
#690000
0!
0>
0E
#695000
1!
1>
1E
0I
0F
0G
1H
0/
11
10
12
#700000
0!
0>
0E
#705000
1!
1>
1E
1I
02
#710000
0!
0>
0E
#715000
1!
1>
1E
0I
0H
1B
01
12
#720000
0!
0>
0E
#725000
1!
1>
1E
1I
0B
02
#730000
0!
0>
0E
#735000
1!
1>
1E
0I
1G
1H
11
00
12
#740000
0!
0>
0E
#745000
1!
1>
1E
1I
02
#750000
0!
0>
0E
#755000
1!
1>
1E
0I
0H
01
12
#760000
0!
0>
0E
#765000
1!
1>
1E
1I
1D
02
#770000
0!
0>
0E
#775000
1!
1>
1E
0I
1F
0D
1@
1/
12
0K
04
#780000
0!
0>
0E
#785000
1!
1>
1E
1I
0@
02
#790000
0!
0>
0E
#795000
1!
1>
1E
0I
0F
0G
1H
0/
11
10
12
#800000
0!
0>
0E
#805000
1!
1>
1E
1I
02
#810000
0!
0>
0E
#815000
1!
1>
1E
0I
0H
1B
01
12
1C
0J
1L
0M
0N
0C
15
06
07
13
#820000
0!
0>
0E
#825000
1!
1>
1E
1I
0B
02
#830000
0!
0>
0E
#835000
1!
1>
1E
0I
1G
1H
11
00
12
#840000
0!
0>
0E
#845000
1!
1>
1E
1I
02
#850000
0!
0>
0E
#855000
1!
1>
1E
0I
0H
01
12
#860000
0!
0>
0E
#865000
1!
1>
1E
1I
1D
02
#870000
0!
0>
0E
#875000
1!
1>
1E
0I
1F
0D
1@
1/
12
1J
1K
14
03
#880000
0!
0>
0E
#885000
1!
1>
1E
1I
0@
02
#890000
0!
0>
0E
#895000
1!
1>
1E
0I
0F
0G
1H
0/
11
10
12
#900000
0!
0>
0E
#905000
1!
1>
1E
1I
02
#910000
0!
0>
0E
#915000
1!
1>
1E
0I
0H
1B
01
12
#920000
0!
0>
0E
#925000
1!
1>
1E
1I
0B
02
#930000
0!
0>
0E
#935000
1!
1>
1E
0I
1G
1H
11
00
12
#940000
0!
0>
0E
#945000
1!
1>
1E
1I
02
#950000
0!
0>
0E
#955000
1!
1>
1E
0I
0H
01
12
#960000
0!
0>
0E
#965000
1!
1>
1E
1I
1D
02
#970000
0!
0>
0E
#975000
1!
1>
1E
0I
1F
0D
1@
1/
12
0K
04
#980000
0!
0>
0E
#985000
1!
1>
1E
1I
0@
02
#990000
0!
0>
0E
#995000
1!
1>
1E
0I
0F
0G
1H
0/
11
10
12
